<svg xmlns="http://www.w3.org/2000/svg" width="150" height="80" viewBox="0 0 150 80">
  <g id="Logo" transform="translate(0)">
    <path id="Frame" d="M39.3,241.226h7.5V228.81h12.66v-7.119H46.791v-5.258h12.66v-7.119H39.3Zm47.5-14.874a11.19,11.19,0,0,0,.389-9.875,11.815,11.815,0,0,0-2.654-3.736,12.446,12.446,0,0,0-3.94-2.517,12.665,12.665,0,0,0-4.806-.911H64.579v31.912h7.5v-8.509h3.848l5.134,8.553h8.613l-6.5-10.854A12,12,0,0,0,86.8,226.352Zm-6.527-3.574a4.779,4.779,0,0,1-1.05,1.464,5.014,5.014,0,0,1-1.552.989,4.922,4.922,0,0,1-1.9.367h-3.7v-9.165h3.7a4.922,4.922,0,0,1,1.9.367,5.014,5.014,0,0,1,1.552.989,4.766,4.766,0,0,1,1.05,1.439,4.085,4.085,0,0,1,.389,1.763A4.322,4.322,0,0,1,80.278,222.778ZM102.7,209.27,94.8,241.226h7.675l.866-3.559h9.868l.912,3.559h7.675l-7.952-31.956Zm2.418,21.273,3.151-12.808,3.2,12.808Zm38.4-3.515L138.4,209.314l-11.471-.044v31.956h7.5V222.249l5.436,18.977h7.311l5.39-18.585v18.585h7.5V209.27l-11.379.044ZM189.3,216.462v-7.114H173.791V209.3H165.64v31.917H189.3v-7.114H173.791v-5.293H189.3V221.7H173.791v-5.248H189.3Z" transform="translate(-39.3 -161.27)" fill="#fff"/>
    <g id="One" transform="translate(0 0)">
      <path id="Path_300" data-name="Path 300" d="M147.78,104.321a17.249,17.249,0,0,0-5.331,3.546,16.593,16.593,0,0,0-3.6,5.26,16.548,16.548,0,0,0,0,12.964,16.593,16.593,0,0,0,3.6,5.26,17.188,17.188,0,0,0,5.331,3.546,16.837,16.837,0,0,0,13.028,0,17.248,17.248,0,0,0,5.331-3.546,16.594,16.594,0,0,0,3.6-5.26,16.548,16.548,0,0,0,0-12.964,16.593,16.593,0,0,0-3.6-5.26,17.188,17.188,0,0,0-5.331-3.546,16.837,16.837,0,0,0-13.028,0Zm2.892,23.76a9.076,9.076,0,0,1-2.959-1.98,9.414,9.414,0,0,1-1.981-2.944,8.951,8.951,0,0,1-.731-3.577,8.691,8.691,0,0,1,.731-3.551,9.562,9.562,0,0,1,1.981-2.923,9.345,9.345,0,0,1,13.162,0,9.441,9.441,0,0,1,1.981,2.923,8.776,8.776,0,0,1,.731,3.551,8.882,8.882,0,0,1-.731,3.577,9.414,9.414,0,0,1-1.981,2.944,9.273,9.273,0,0,1-6.581,2.7A9.25,9.25,0,0,1,150.671,128.081Z" transform="translate(-87.266 -99.811)" fill="#fff"/>
      <path id="Path_301" data-name="Path 301" d="M243.4,136.209v-33.2h-7.471v18.969L225.27,103.01H217.3v33.2h7.471V117.24l10.641,18.969Z" transform="translate(-126.188 -99.811)" fill="#fff"/>
      <path id="Path_302" data-name="Path 302" d="M309.7,110.454v-7.4H294.151v-.046H285.98v33.2H309.7v-7.4H294.156v-5.505H309.7v-7.4H294.156v-5.459H309.7v.005Z" transform="translate(-159.701 -99.811)" fill="#fff"/>
      <path id="Path_303" data-name="Path 303" d="M66.936,111.556v-6.628a23.509,23.509,0,0,0,5.346-.515,12.925,12.925,0,0,0,4.214-1.582,6.792,6.792,0,0,0,2.079-2.653A10.392,10.392,0,0,0,79.5,96.74H39.3v38H77.721V111.561H66.936Z" transform="translate(-39.3 -96.74)" fill="#fff"/>
    </g>
  </g>
</svg>
